@startuml

skinparam nodesep 20
skinparam ranksep 40
skinparam classAttributeIconSize 0
skinparam backgroundcolor transparent
hide empty members

title Detalhe das classes do modelo de Covid

abstract class Element{
    +Element(l:int, c:int, model:CovidModel)
    ~Element()
    +getPosition():Position
    ~move(dir:Dir)
    ~move(p:Position)
    abstract elementColision(pos:Position):boolean
    abstract isMovable():boolean
    abstract trashColision(p:Position)
    ~isMove(old:Position):boolean
    ~saveBundle(Dos:DaOutputStream)
    ~loadBundle(dis:DataInputStream)
    +abstract char save()
}
Element o-L- Position : position

class Nurse{
    -dead:boolean
    ~Nurse(l:int,c:int,m:CovidModel)
    ~Nurse()
    +isDead():boolean
    ~move(dir:Dir)
    ~elementColision(pos:Position):boolean
    ~isMovable():boolean
    ~trashColision(p:Position)
    ~isMove(old:Position)
    ~save(dos:DataOutputStream)
    ~load(dis DataInputStream)
}
Element <|-- Nurse

class Virus{
    ~Virus(l:int, c:int, m:CovidModel)
    ~Virus()
    ~move(dir:Dir)
    ~elementColision(old:Position)
    ~isMovable():boolean
    ~trashColision(p:Position)
    ~isMove(old:Position)
    ~save(dos:DaOutputStream)
    ~load(dis:DataInputStream)
}
Element <|-- Virus

class Trash{
    ~Virus(l:int, c:int, m:CovidModel)
    ~Virus()
    ~elementColision(old:Position)
    ~isMovable():boolean
    ~trashColision(p:Position)
    ~isMove(old:Position)
    ~save(dos:DaOutputStream)
    ~load(dis:DataInputStream)
}
Element <|--Trash

class Wall{
    ~Wall(l:int, c:int, m:CovidModel)
    ~Wall()
    ~elementColision(old:Position)
    ~isMovable():boolean
    ~trashColision(p:Position)
    ~isMove(old:Position)
    ~save(dos:DaOutputStream)
    ~load(dis:DataInputStream)
}
Element <|-- Wall

class CovidModel{
    -loader:Loader
    -level:Level
    ~currDir:Dir
    ~arena:Arena
    -nurse:Nurse
    -endGame:boolean
    +covidModel(in:Scanner, levelNumb:int)
    +setloader(in:Scanner)
    +getEndGame()boolean
    +setEnfGame(endGame:boolean)
    -initLevel(levelNumb:int):boobean
    -initArena()
    +nextLevel(i:int):boolean
    +getLines():int
    +getCols():int
    +startLevel()
    +getNumVirus():int
    +setNumVirus(n:int)
    +moveNurse(dir:Dir)
    ~movedElement(old:Position, element:Element)
    +getRemoveMovables(): LinkedList<Element>
    +moveMovable(e:Element)
    +getNurse():Nurse
    ~updateElement(pos:Position)
    ~updateValueVirus()
    +saveBundle(dos:DataOutputStream)
    +loadBundle(dis:DataInputStream)
    +save(pw:PrintWrite)
    +load(in:Scanner)
    +iterator():Iterator<Element>
    -listener:GameLiner
    +reset()
    +addListener(listener:GameListener)
    -ctrlListener:Listener
    +setListener(l:Listener)
}
CovidModel --> Nurse : *~nurse
CovidModel o-- Arena : arena

class Arena{
    -map:Element[][]
    +Arena(height:int,width:int)
    ~set(elem:Element)
    +get(pos:Position):Element
    ~getHeight():int
    ~getWidth():int
    +reset(p:Position)
    ~removeMovables():LinkedList<Element>
    +iterator():Iterator<Actor>
    -getFirst():Position
    -getNext(cur:Position):Position
    +get(i:int, j:int):Element
}
Arena o-- "*" Element : -map

class Position{
    +line:int
    +col:int
    {static}-all:Position[][]
    -Position(l:int,c:int)
    ~{static}init(lines:int,cols:int)
    +{static}of(l:int,c:int):Position
    +add(dir:Dir):Position
}

@enduml